<?xml version="1.0" encoding="UTF-8"?>
<svg width="98px" height="100px" viewBox="0 0 98 100" version="1.1" xmlns="http://www.w3.org/2000/svg" xmlns:xlink="http://www.w3.org/1999/xlink">
    <!-- Generator: Sketch 51.3 (57544) - http://www.bohemiancoding.com/sketch -->
    <title>Sync@2x</title>
    <desc>Created with Sketch.</desc>
    <defs></defs>
    <g id="New-Desktop-App" stroke="none" stroke-width="1" fill="none" fill-rule="evenodd">
        <g id="Syncing_Data" transform="translate(-461.000000, -344.000000)" fill="#8C8C8C" fill-rule="nonzero">
            <g id="Sync" transform="translate(461.000000, 344.000000)">
                <circle id="Oval-2" cx="71.0202676" cy="12.0501066" r="9.03510172"></circle>
                <circle id="Oval-2" cx="85.3203925" cy="29.2376573" r="6.80737731"></circle>
                <circle id="Oval-2" cx="48" cy="7" r="6.80737731"></circle>
                <circle id="Oval-2" cx="48" cy="94" r="5.05010658"></circle>
                <circle id="Oval-2" cx="92" cy="50.5" r="5.05010658"></circle>
                <circle id="Oval-2" cx="5.91755853" cy="50.5" r="5.05010658"></circle>
                <circle id="Oval-2" cx="10.9676651" cy="71.3985495" r="5.05010658"></circle>
                <circle id="Oval-2" cx="24.5093749" cy="86.9659189" r="5.05010658"></circle>
                <circle id="Oval-2" cx="85.3203925" cy="71.3985495" r="5.05010658"></circle>
                <circle id="Oval-2" cx="71.0202676" cy="86.9659189" r="5.05010658"></circle>
                <circle id="Oval-2" cx="10.9676651" cy="29.2376573" r="5.05010658"></circle>
                <circle id="Oval-2" cx="24.5093749" cy="12.0501066" r="5.05010658"></circle>
            </g>
        </g>
    </g>
</svg>